…
------------------------------------------------------------------------

### creating bootstrap folds

``` r
set.seed(123)
folds = bootstraps(works_subset, times = 250)
folds
```

    ## # Bootstrap sampling 
    ## # A tibble: 250 x 2
    ##    splits             id          
    ##    <list>             <chr>       
    ##  1 <split [2245/825]> Bootstrap001
    ##  2 <split [2245/821]> Bootstrap002
    ##  3 <split [2245/827]> Bootstrap003
    ##  4 <split [2245/841]> Bootstrap004
    ##  5 <split [2245/808]> Bootstrap005
    ##  6 <split [2245/823]> Bootstrap006
    ##  7 <split [2245/833]> Bootstrap007
    ##  8 <split [2245/825]> Bootstrap008
    ##  9 <split [2245/823]> Bootstrap009
    ## 10 <split [2245/840]> Bootstrap010
    ## # ... with 240 more rows
------------------------------------------------------------------------

### building models

``` r
linear_coefs = folds |>
  mutate(model = map(splits, ~ lm(area_of_work_in_book ~ artist_gender + publication_year,
                                  data = analysis(.x))),
         coef_info = map(model, tidy))

linear_coefs
```

    ## # Bootstrap sampling 
    ## # A tibble: 250 x 4
    ##    splits             id           model  coef_info       
    ##    <list>             <chr>        <list> <list>          
    ##  1 <split [2245/825]> Bootstrap001 <lm>   <tibble [3 x 5]>
    ##  2 <split [2245/821]> Bootstrap002 <lm>   <tibble [3 x 5]>
    ##  3 <split [2245/827]> Bootstrap003 <lm>   <tibble [3 x 5]>
    ##  4 <split [2245/841]> Bootstrap004 <lm>   <tibble [3 x 5]>
    ##  5 <split [2245/808]> Bootstrap005 <lm>   <tibble [3 x 5]>
    ##  6 <split [2245/823]> Bootstrap006 <lm>   <tibble [3 x 5]>
    ##  7 <split [2245/833]> Bootstrap007 <lm>   <tibble [3 x 5]>
    ##  8 <split [2245/825]> Bootstrap008 <lm>   <tibble [3 x 5]>
    ##  9 <split [2245/823]> Bootstrap009 <lm>   <tibble [3 x 5]>
    ## 10 <split [2245/840]> Bootstrap010 <lm>   <tibble [3 x 5]>
    ## # ... with 240 more rows

------------------------------------------------------------------------

### getting linear coefficients

``` r
linear_coefs |>
  unnest(coef_info)
```

    ## # A tibble: 750 x 8
    ##    splits             id          model term  estimate std.e~1 stati~2   p.value
    ##    <list>             <chr>       <lis> <chr>    <dbl>   <dbl>   <dbl>     <dbl>
    ##  1 <split [2245/825]> Bootstrap0~ <lm>  (Int~ -5.41    3.45e-1  -15.7  1.18e- 52
    ##  2 <split [2245/825]> Bootstrap0~ <lm>  arti~  0.0270  1.28e-2    2.11 3.47e-  2
    ##  3 <split [2245/825]> Bootstrap0~ <lm>  publ~  0.00374 1.72e-4   21.8  1.67e- 95
    ##  4 <split [2245/821]> Bootstrap0~ <lm>  (Int~ -5.97    3.35e-1  -17.8  1.63e- 66
    ##  5 <split [2245/821]> Bootstrap0~ <lm>  arti~  0.0574  1.33e-2    4.32 1.62e-  5
    ##  6 <split [2245/821]> Bootstrap0~ <lm>  publ~  0.00402 1.67e-4   24.0  1.06e-113
    ##  7 <split [2245/827]> Bootstrap0~ <lm>  (Int~ -5.43    3.27e-1  -16.6  1.22e- 58
    ##  8 <split [2245/827]> Bootstrap0~ <lm>  arti~  0.0516  1.21e-2    4.26 2.13e-  5
    ##  9 <split [2245/827]> Bootstrap0~ <lm>  publ~  0.00375 1.63e-4   23.0  1.92e-105
    ## 10 <split [2245/841]> Bootstrap0~ <lm>  (Int~ -5.80    3.39e-1  -17.1  1.14e- 61
    ## # ... with 740 more rows, and abbreviated variable names 1: std.error,
    ## #   2: statistic
…
